tests/simple_spi_in_test/test.vcd
$date
	Mon Feb 19 22:38:59 2018
$end
$version
	Icarus Verilog
$end
$timescale
	1ps
$end
$scope module top_tb $end
$scope module dut $end
$var wire 1 ! boot $end
$var wire 1 " clk_48mhz $end
$var wire 1 # ctrl_out_ep_stall $end
$var wire 1 $ reset $end
$var wire 1 % serial_in_ep_stall $end
$var wire 1 & serial_out_ep_stall $end
$var wire 1 ' spi_miso $end
$var wire 1 ( usb_n_rx $end
$var wire 1 ) usb_p_rx $end
$var wire 1 * usb_tx_en $end
$var wire 1 + usb_p_tx $end
$var wire 1 , usb_n_tx $end
$var wire 1 - us_rst $end
$var wire 1 . spi_sck $end
$var wire 1 / spi_mosi $end
$var wire 1 0 spi_cs $end
$var wire 1 1 sof_valid $end
$var wire 1 2 serial_out_ep_setup $end
$var wire 1 3 serial_out_ep_req $end
$var wire 1 4 serial_out_ep_grant $end
$var wire 1 5 serial_out_ep_data_get $end
$var wire 1 6 serial_out_ep_data_avail $end
$var wire 1 7 serial_out_ep_acked $end
$var wire 1 8 serial_in_ep_req $end
$var wire 1 9 serial_in_ep_grant $end
$var wire 1 : serial_in_ep_data_put $end
$var wire 1 ; serial_in_ep_data_free $end
$var wire 1 < serial_in_ep_data_done $end
$var wire 8 = serial_in_ep_data [7:0] $end
$var wire 1 > serial_in_ep_acked $end
$var wire 32 ? output_pin_values [31:0] $end
$var wire 32 @ output_pin_enables [31:0] $end
$var wire 8 A out_ep_data [7:0] $end
$var wire 1 B ns_rst $end
$var wire 1 C nak_in_ep_grant $end
$var wire 1 D nak_in_ep_data_free $end
$var wire 1 E nak_in_ep_acked $end
$var wire 1 F ms_rst $end
$var wire 1 G led $end
$var wire 11 H frame_index [10:0] $end
$var wire 7 I dev_addr [6:0] $end
$var wire 1 J ctrl_out_ep_setup $end
$var wire 1 K ctrl_out_ep_req $end
$var wire 1 L ctrl_out_ep_grant $end
$var wire 1 M ctrl_out_ep_data_get $end
$var wire 1 N ctrl_out_ep_data_avail $end
$var wire 1 O ctrl_out_ep_acked $end
$var wire 1 P ctrl_in_ep_stall $end
$var wire 1 Q ctrl_in_ep_req $end
$var wire 1 R ctrl_in_ep_grant $end
$var wire 1 S ctrl_in_ep_data_put $end
$var wire 1 T ctrl_in_ep_data_free $end
$var wire 1 U ctrl_in_ep_data_done $end
$var wire 8 V ctrl_in_ep_data [7:0] $end
$var wire 1 W ctrl_in_ep_acked $end
$var wire 1 X boot_to_user_design $end
$var reg 1 Y count_down $end
$var reg 1 Z host_presence_timeout $end
$var reg 32 [ host_presence_timer [31:0] $end
$var reg 8 \ led_pwm [7:0] $end
$var reg 10 ] ms_cnt [9:0] $end
$var reg 6 ^ ns_cnt [5:0] $end
$var reg 8 _ pwm_cnt [7:0] $end
$var reg 10 ` us_cnt [9:0] $end
$scope module ctrl_ep_inst $end
$var wire 1 a all_data_sent $end
$var wire 1 " clk $end
$var wire 1 b in_data_stage $end
$var wire 1 W in_ep_acked $end
$var wire 1 U in_ep_data_done $end
$var wire 1 T in_ep_data_free $end
$var wire 1 S in_ep_data_put $end
$var wire 1 R in_ep_grant $end
$var wire 1 Q in_ep_req $end
$var wire 1 c out_data_stage $end
$var wire 1 O out_ep_acked $end
$var wire 1 N out_ep_data_avail $end
$var wire 1 M out_ep_data_get $end
$var wire 1 L out_ep_grant $end
$var wire 1 K out_ep_req $end
$var wire 1 J out_ep_setup $end
$var wire 1 # out_ep_stall $end
$var wire 1 $ reset $end
$var wire 1 d setup_pkt_start $end
$var wire 16 e wValue [15:0] $end
$var wire 16 f wLength [15:0] $end
$var wire 16 g wIndex [15:0] $end
$var wire 1 h pkt_start $end
$var wire 1 i pkt_end $end
$var wire 8 j out_ep_data [7:0] $end
$var wire 1 k more_data_to_send $end
$var wire 1 l in_data_transfer_done $end
$var wire 1 m has_data_stage $end
$var wire 7 n dev_addr [6:0] $end
$var wire 8 o bmRequestType [7:0] $end
$var wire 8 p bRequest [7:0] $end
$var reg 8 q bytes_sent [7:0] $end
$var reg 6 r ctrl_xfr_state [5:0] $end
$var reg 6 s ctrl_xfr_state_next [5:0] $end
$var reg 1 t data_stage_end $end
$var reg 7 u dev_addr_i [6:0] $end
$var reg 8 v in_ep_data [7:0] $end
$var reg 1 P in_ep_stall $end
$var reg 7 w new_dev_addr [6:0] $end
$var reg 1 x out_ep_data_valid $end
$var reg 7 y rom_addr [6:0] $end
$var reg 7 z rom_length [6:0] $end
$var reg 1 { save_dev_addr $end
$var reg 1 | send_zero_length_data_pkt $end
$var reg 4 } setup_data_addr [3:0] $end
$var reg 1 ~ setup_stage_end $end
$var reg 1 !" status_stage_end $end
$scope module detect_in_data_transfer_done $end
$var wire 1 " clk $end
$var wire 1 a in $end
$var wire 1 l out $end
$var reg 1 "" in_q $end
$upscope $end
$scope module detect_pkt_end $end
$var wire 1 " clk $end
$var wire 1 N in $end
$var wire 1 i out $end
$var reg 1 #" in_q $end
$upscope $end
$scope module detect_pkt_start $end
$var wire 1 " clk $end
$var wire 1 N in $end
$var wire 1 h out $end
$var reg 1 $" in_q $end
$upscope $end
$upscope $end
$scope module usb_fs_pe_inst $end
$var wire 1 " clk $end
$var wire 7 %" dev_addr [6:0] $end
$var wire 11 &" frame_index [10:0] $end
$var wire 24 '" in_ep_data [23:0] $end
$var wire 3 (" in_ep_data_done [2:0] $end
$var wire 3 )" in_ep_data_put [2:0] $end
$var wire 3 *" in_ep_req [2:0] $end
$var wire 3 +" in_ep_stall [2:0] $end
$var wire 2 ," out_ep_data_get [1:0] $end
$var wire 2 -" out_ep_req [1:0] $end
$var wire 2 ." out_ep_stall [1:0] $end
$var wire 1 $ reset $end
$var wire 1 1 sof_valid $end
$var wire 1 ( usb_n_rx $end
$var wire 1 ) usb_p_rx $end
$var wire 1 * usb_tx_en $end
$var wire 1 + usb_p_tx $end
$var wire 1 , usb_n_tx $end
$var wire 1 /" tx_pkt_start $end
$var wire 1 0" tx_pkt_end $end
$var wire 4 1" tx_pid [3:0] $end
$var wire 1 2" tx_data_get $end
$var wire 1 3" tx_data_avail $end
$var wire 8 4" tx_data [7:0] $end
$var wire 1 5" rx_pkt_valid $end
$var wire 1 6" rx_pkt_start $end
$var wire 1 7" rx_pkt_end $end
$var wire 4 8" rx_pid [3:0] $end
$var wire 11 9" rx_frame_num [10:0] $end
$var wire 4 :" rx_endp [3:0] $end
$var wire 1 ;" rx_data_put $end
$var wire 8 <" rx_data [7:0] $end
$var wire 7 =" rx_addr [6:0] $end
$var wire 1 >" out_tx_pkt_start $end
$var wire 4 ?" out_tx_pid [3:0] $end
$var wire 2 @" out_ep_setup [1:0] $end
$var wire 2 A" out_ep_grant [1:0] $end
$var wire 2 B" out_ep_data_avail [1:0] $end
$var wire 8 C" out_ep_data [7:0] $end
$var wire 2 D" out_ep_acked [1:0] $end
$var wire 1 E" in_tx_pkt_start $end
$var wire 4 F" in_tx_pid [3:0] $end
$var wire 3 G" in_ep_grant [2:0] $end
$var wire 3 H" in_ep_data_free [2:0] $end
$var wire 3 I" in_ep_acked [2:0] $end
$var wire 1 J" bit_strobe $end
$var wire 8 K" arb_in_ep_data [7:0] $end
$scope module usb_fs_in_arb_inst $end
$var wire 24 L" in_ep_data [23:0] $end
$var wire 3 M" in_ep_req [2:0] $end
$var reg 8 N" arb_in_ep_data [7:0] $end
$var reg 1 O" grant $end
$var reg 3 P" in_ep_grant [2:0] $end
$var integer 32 Q" i [31:0] $end
$upscope $end
$scope module usb_fs_in_pe_inst $end
$var wire 1 R" ack_received $end
$var wire 1 " clk $end
$var wire 6 S" current_ep_get_addr [5:0] $end
$var wire 6 T" current_ep_put_addr [5:0] $end
$var wire 2 U" current_ep_state [1:0] $end
$var wire 7 V" dev_addr [6:0] $end
$var wire 8 W" in_ep_data [7:0] $end
$var wire 3 X" in_ep_data_done [2:0] $end
$var wire 3 Y" in_ep_data_put [2:0] $end
$var wire 3 Z" in_ep_stall [2:0] $end
$var wire 1 [" in_token_received $end
$var wire 1 $ reset $end
$var wire 3 \" reset_ep [2:0] $end
$var wire 1 ]" setup_token_received $end
$var wire 1 ^" token_received $end
$var wire 1 3" tx_data_avail $end
$var wire 1 _" tx_data_avail_i $end
$var wire 1 0" tx_pkt_end $end
$var wire 1 2" tx_data_get $end
$var wire 1 5" rx_pkt_valid $end
$var wire 1 6" rx_pkt_start $end
$var wire 1 7" rx_pkt_end $end
$var wire 4 `" rx_pid [3:0] $end
$var wire 11 a" rx_frame_num [10:0] $end
$var wire 4 b" rx_endp [3:0] $end
$var wire 7 c" rx_addr [6:0] $end
$var wire 1 d" more_data_to_send $end
$var wire 9 e" buffer_put_addr [8:0] $end
$var wire 9 f" buffer_get_addr [8:0] $end
$var reg 4 g" current_endp [3:0] $end
$var reg 3 h" data_toggle [2:0] $end
$var reg 3 i" endp_free [2:0] $end
$var reg 3 j" endp_ready_to_send [2:0] $end
$var reg 3 k" in_ep_acked [2:0] $end
$var reg 3 l" in_ep_data_free [2:0] $end
$var reg 4 m" in_ep_num [3:0] $end
$var reg 1 n" in_xfr_end $end
$var reg 1 o" in_xfr_start $end
$var reg 2 p" in_xfr_state [1:0] $end
$var reg 2 q" in_xfr_state_next [1:0] $end
$var reg 1 r" rollback_in_xfr $end
$var reg 8 s" tx_data [7:0] $end
$var reg 4 t" tx_pid [3:0] $end
$var reg 1 E" tx_pkt_start $end
$var integer 32 u" ep_num_decoder [31:0] $end
$var integer 32 v" i [31:0] $end
$var integer 32 w" j [31:0] $end
$scope begin genblk1[0] $end
$upscope $end
$scope begin genblk1[1] $end
$upscope $end
$scope begin genblk1[2] $end
$upscope $end
$upscope $end
$scope module usb_fs_out_arb_inst $end
$var wire 2 x" out_ep_req [1:0] $end
$var reg 1 y" grant $end
$var reg 2 z" out_ep_grant [1:0] $end
$var integer 32 {" i [31:0] $end
$upscope $end
$scope module usb_fs_out_pe_inst $end
$var wire 1 |" bit_strobe $end
$var wire 1 " clk $end
$var wire 1 }" data_packet_matches_toggle $end
$var wire 1 ~" data_packet_received $end
$var wire 7 !# dev_addr [6:0] $end
$var wire 1 "# invalid_packet_received $end
$var wire 1 ## non_data_packet_received $end
$var wire 2 $# out_ep_data_get [1:0] $end
$var wire 2 %# out_ep_stall [1:0] $end
$var wire 1 &# out_token_received $end
$var wire 1 $ reset $end
$var wire 2 '# reset_ep [1:0] $end
$var wire 1 (# setup_token_received $end
$var wire 1 )# token_received $end
$var wire 1 0" tx_pkt_end $end
$var wire 1 5" rx_pkt_valid $end
$var wire 1 6" rx_pkt_start $end
$var wire 1 7" rx_pkt_end $end
$var wire 4 *# rx_pid [3:0] $end
$var wire 11 +# rx_frame_num [10:0] $end
$var wire 4 ,# rx_endp [3:0] $end
$var wire 1 ;" rx_data_put $end
$var wire 8 -# rx_data [7:0] $end
$var wire 7 .# rx_addr [6:0] $end
$var wire 2 /# out_ep_data_avail [1:0] $end
$var wire 9 0# buffer_put_addr [8:0] $end
$var wire 9 1# buffer_get_addr [8:0] $end
$var reg 4 2# current_endp [3:0] $end
$var reg 2 3# data_toggle [1:0] $end
$var reg 1 4# last_data_toggle $end
$var reg 1 5# nak_out_transfer $end
$var reg 1 6# new_pkt_end $end
$var reg 2 7# out_ep_acked [1:0] $end
$var reg 8 8# out_ep_data [7:0] $end
$var reg 2 9# out_ep_data_avail_i [1:0] $end
$var reg 2 :# out_ep_data_avail_j [1:0] $end
$var reg 4 ;# out_ep_num [3:0] $end
$var reg 2 <# out_ep_setup [1:0] $end
$var reg 1 =# out_xfr_start $end
$var reg 2 ># out_xfr_state [1:0] $end
$var reg 2 ?# out_xfr_state_next [1:0] $end
$var reg 1 @# rollback_data $end
$var reg 4 A# tx_pid [3:0] $end
$var reg 1 >" tx_pkt_start $end
$var integer 32 B# ep_num_decoder [31:0] $end
$var integer 32 C# i [31:0] $end
$var integer 32 D# j [31:0] $end
$scope begin genblk1[0] $end
$upscope $end
$scope begin genblk1[1] $end
$upscope $end
$upscope $end
$scope module usb_fs_rx_inst $end
$var wire 1 E# clk $end
$var wire 1 " clk_48mhz $end
$var wire 1 F# crc16_invert $end
$var wire 1 G# crc5_invert $end
$var wire 1 ( dn $end
$var wire 1 ) dp $end
$var wire 1 H# dvalid $end
$var wire 1 I# packet_end $end
$var wire 1 J# packet_start $end
$var wire 1 7" pkt_end $end
$var wire 1 6" pkt_start $end
$var wire 1 $ reset $end
$var wire 1 ;" rx_data_put $end
$var wire 1 5" valid_packet $end
$var wire 1 K# token_payload_done $end
$var wire 1 L# rx_data_buffer_full $end
$var wire 8 M# rx_data [7:0] $end
$var wire 1 N# pkt_is_token $end
$var wire 1 O# pkt_is_handshake $end
$var wire 1 P# pkt_is_data $end
$var wire 1 Q# pid_valid $end
$var wire 1 R# pid_complete $end
$var wire 4 S# pid [3:0] $end
$var wire 1 T# line_state_valid $end
$var wire 2 U# dpair [1:0] $end
$var wire 1 V# crc5_valid $end
$var wire 1 W# crc16_valid $end
$var wire 1 J" bit_strobe $end
$var reg 7 X# addr [6:0] $end
$var reg 2 Y# bit_phase [1:0] $end
$var reg 6 Z# bitstuff_history [5:0] $end
$var reg 16 [# crc16 [15:0] $end
$var reg 5 \# crc5 [4:0] $end
$var reg 1 ]# din $end
$var reg 4 ^# dpair_q [3:0] $end
$var reg 1 _# dvalid_raw $end
$var reg 4 `# endp [3:0] $end
$var reg 11 a# frame_num [10:0] $end
$var reg 9 b# full_pid [8:0] $end
$var reg 6 c# line_history [5:0] $end
$var reg 3 d# line_state [2:0] $end
$var reg 1 e# next_packet_valid $end
$var reg 1 f# packet_valid $end
$var reg 9 g# rx_data_buffer [8:0] $end
$var reg 12 h# token_payload [11:0] $end
$upscope $end
$scope module usb_fs_tx_inst $end
$var wire 1 J" bit_strobe $end
$var wire 1 i# clk $end
$var wire 1 " clk_48mhz $end
$var wire 1 j# crc16_invert $end
$var wire 1 0" pkt_end $end
$var wire 1 $ reset $end
$var wire 8 k# tx_data [7:0] $end
$var wire 1 3" tx_data_avail $end
$var wire 1 l# serial_tx_se0 $end
$var wire 1 m# serial_tx_oe $end
$var wire 1 n# serial_tx_data $end
$var wire 1 /" pkt_start $end
$var wire 4 o# pid [3:0] $end
$var wire 1 p# bitstuff $end
$var wire 6 q# bit_history [5:0] $end
$var reg 3 r# bit_count [2:0] $end
$var reg 5 s# bit_history_q [4:0] $end
$var reg 1 t# bitstuff_q $end
$var reg 1 u# bitstuff_qq $end
$var reg 1 v# bitstuff_qqq $end
$var reg 1 w# bitstuff_qqqq $end
$var reg 1 x# byte_strobe $end
$var reg 16 y# crc16 [15:0] $end
$var reg 1 z# data_payload $end
$var reg 8 {# data_shift_reg [7:0] $end
$var reg 1 , dn $end
$var reg 1 + dp $end
$var reg 3 |# dp_eop [2:0] $end
$var reg 1 * oe $end
$var reg 8 }# oe_shift_reg [7:0] $end
$var reg 4 ~# pidq [3:0] $end
$var reg 32 !$ pkt_state [31:0] $end
$var reg 8 "$ se0_shift_reg [7:0] $end
$var reg 1 2" tx_data_get $end
$upscope $end
$scope module usb_fs_tx_mux_inst $end
$var wire 4 #$ in_tx_pid [3:0] $end
$var wire 1 E" in_tx_pkt_start $end
$var wire 4 $$ out_tx_pid [3:0] $end
$var wire 1 >" out_tx_pkt_start $end
$var wire 1 /" tx_pkt_start $end
$var wire 4 %$ tx_pid [3:0] $end
$upscope $end
$upscope $end
$scope module usb_spi_bridge_ep_inst $end
$var wire 1 " clk $end
$var wire 1 > in_ep_acked $end
$var wire 1 ; in_ep_data_free $end
$var wire 1 9 in_ep_grant $end
$var wire 1 % in_ep_stall $end
$var wire 1 7 out_ep_acked $end
$var wire 8 &$ out_ep_data [7:0] $end
$var wire 1 6 out_ep_data_avail $end
$var wire 1 5 out_ep_data_get $end
$var wire 1 4 out_ep_grant $end
$var wire 1 3 out_ep_req $end
$var wire 1 2 out_ep_setup $end
$var wire 1 & out_ep_stall $end
$var wire 1 $ reset $end
$var wire 1 '$ spi_byte_in_xfr_ready $end
$var wire 1 ($ spi_byte_out_xfr_ready $end
$var wire 1 ' spi_miso $end
$var wire 1 / spi_mosi $end
$var wire 1 )$ spi_byte_done $end
$var wire 8 *$ in_ep_data [7:0] $end
$var reg 1 X boot_to_user_design $end
$var reg 4 +$ cmd_state [3:0] $end
$var reg 4 ,$ cmd_state_next [3:0] $end
$var reg 16 -$ data_in_length [15:0] $end
$var reg 16 .$ data_out_length [15:0] $end
$var reg 1 /$ get_cmd_out_data $end
$var reg 1 0$ get_spi_out_data $end
$var reg 1 1$ get_spi_out_data_q $end
$var reg 1 < in_ep_data_done $end
$var reg 1 2$ in_ep_data_done_i $end
$var reg 1 3$ in_ep_data_done_q $end
$var reg 1 : in_ep_data_put $end
$var reg 1 8 in_ep_req $end
$var reg 1 4$ in_ep_req_i $end
$var reg 1 5$ out_data_ready $end
$var reg 32 6$ output_pin_enables [31:0] $end
$var reg 32 7$ output_pin_values [31:0] $end
$var reg 1 8$ put_spi_in_data $end
$var reg 1 9$ reset_spi_bit_counter $end
$var reg 4 :$ spi_bit_counter [3:0] $end
$var reg 1 0 spi_cs_b $end
$var reg 1 ;$ spi_dir_transition $end
$var reg 1 <$ spi_get_bit $end
$var reg 1 =$ spi_get_bit_q $end
$var reg 1 >$ spi_has_more_in_bytes $end
$var reg 1 ?$ spi_has_more_out_bytes $end
$var reg 9 @$ spi_in_data [8:0] $end
$var reg 9 A$ spi_out_data [8:0] $end
$var reg 1 B$ spi_put_last_in_byte $end
$var reg 1 . spi_sck $end
$var reg 1 C$ spi_send_bit $end
$var reg 1 D$ spi_start_new_xfr $end
$var reg 3 E$ spi_state [2:0] $end
$var reg 3 F$ spi_state_next [2:0] $end
$var reg 1 G$ update_spi_byte_counters $end
$upscope $end
$upscope $end
$upscope $end
$enddefinitions $end
#0
$dumpvars
0G$
b0 F$
b0 E$
0D$
0C$
0B$
b0 A$
b0 @$
0?$
0>$
0=$
0<$
0;$
b0 :$
09$
08$
b0 7$
b0 6$
05$
04$
03$
02$
01$
00$
0/$
b0 .$
b0 -$
b0 ,$
b0 +$
b0 *$
0)$
x($
0'$
b0 &$
b0 %$
b0 $$
b0 #$
b0 "$
b0 !$
b0 ~#
b0 }#
b0 |#
b0 {#
0z#
b0 y#
0x#
0w#
0v#
0u#
0t#
b0 s#
b0 r#
b0 q#
0p#
b0 o#
0n#
0m#
0l#
b0 k#
0j#
xi#
b0 h#
b0 g#
0f#
0e#
b0 d#
b0 c#
b0 b#
b0 a#
b0 `#
0_#
b0 ^#
0]#
b0 \#
b0 [#
b0 Z#
b0 Y#
b0 X#
0W#
0V#
b0 U#
0T#
b0 S#
0R#
0Q#
0P#
0O#
0N#
b0 M#
0L#
0K#
0J#
0I#
0H#
0G#
0F#
xE#
bx D#
bx C#
b10 B#
b0 A#
0@#
b0 ?#
b0 >#
0=#
b0 <#
b0 ;#
b0 :#
b0 9#
b0 8#
b0 7#
06#
05#
04#
b0 3#
b0 2#
b0xxxxx 1#
b0xxxxx 0#
bx /#
b0 .#
b0 -#
b0 ,#
b0 +#
b0 *#
0)#
0(#
bz '#
0&#
bz %#
b0x $#
0##
0"#
b0 !#
0~"
1}"
z|"
bx {"
bx z"
xy"
bx x"
bx w"
b11 v"
b11 u"
b0 t"
b0 s"
1r"
b0 q"
b0 p"
0o"
0n"
b0 m"
b0 l"
b0 k"
b0 j"
b111 i"
b0 h"
b0 g"
b0 f"
b0 e"
0d"
b0 c"
b0 b"
b0 a"
b0 `"
0_"
0^"
0]"
bz \"
0["
b0zx Z"
b0 Y"
b0 X"
b0 W"
b0 V"
b0 U"
b0 T"
b0 S"
0R"
b11 Q"
b0 P"
0O"
b0 N"
b0 M"
b10010 L"
b0 K"
0J"
b0 I"
b0 H"
b0 G"
b0 F"
0E"
b0 D"
b0 C"
bx B"
bx A"
b0 @"
b0 ?"
0>"
b0 ="
b0 <"
0;"
b0 :"
b0 9"
b0 8"
07"
06"
05"
b0 4"
03"
02"
b0 1"
00"
0/"
bz ."
bx -"
b0x ,"
b0zx +"
b0 *"
b0 )"
b0 ("
b10010 '"
b0 &"
b0 %"
x$"
x#"
x""
0!"
0~
b0 }
0|
0{
b0 z
b0 y
0x
b0 w
b10010 v
b0 u
0t
b0 s
b0 r
b0 q
bx p
bx o
b0 n
xm
xl
0k
b0 j
xi
xh
bx g
bx f
bx e
0d
xc
xb
1a
b0 `
b0 _
b0 ^
b0 ]
b0 \
b0 [
0Z
0Y
0X
0W
b10010 V
0U
0T
0S
0R
0Q
xP
0O
xN
xM
xL
xK
0J
b0 I
b0 H
0G
0F
0E
0D
0C
0B
b0 A
b0 @
b0 ?
0>
b0 =
0<
0;
0:
09
08
07
x6
05
x4
x3
02
01
10
0/
1.
0-
0,
0+
0*
0)
1(
0'
z&
z%
0$
z#
x"
0!
$end
#1
0E#
0i#
0"
#10417
04
0L
b0 A"
b0 z"
1r"
b10 B#
0h
0($
b10 {"
0y"
1D
1;
1T
0K
b0 ,"
b0 $#
0M
0N
b0 -"
b0 x"
03
06
0l
b111 H"
b111 l"
b0 B"
b0 /#
1""
xx
b0z0 +"
b0z0 Z"
0P
x5$
b1 U"
bx 4"
bx s"
bx k#
bx A
bx j
bx C"
bx 8#
bx &$
b1 ^
b1 _
b1 [
b1 ^#
1T#
b1 Y#
b11 w"
b10 C#
b10 D#
1E#
1i#
1"
#20833
0E#
0i#
0"
#31249
0i
b1 U#
b10 [
b10 _
b10 ^
b0 1#
05$
0x
0#"
0$"
0T#
1J"
b10 Y#
b101 ^#
b10 D#
b10 C#
b11 w"
1E#
1i#
1"
#41665
0E#
0i#
0"
#52081
b11 ^
b11 _
b11 [
b100 d#
0J"
b11 Y#
b1 r#
1x#
1,
1+
b11 w"
b10 C#
b10 D#
1E#
1i#
1"
#62497
0E#
0i#
0"
#72913
b100 [
b100 _
b100 ^
b0 Y#
b1 d#
0x#
b10 D#
b10 C#
b11 w"
1E#
1i#
1"
#83328
0(
1)
#83329
0E#
0i#
0"
#93745
b101 ^
b101 _
b101 [
b110 ^#
1T#
b1 Y#
b11 w"
b10 C#
b10 D#
1E#
1i#
1"
#104161
0E#
0i#
0"
#114577
b10 U#
b110 [
b110 _
b110 ^
b1 c#
0T#
1J"
b10 Y#
b1010 ^#
b10 D#
b10 C#
b11 w"
1E#
1i#
1"
#124993
0E#
0i#
0"
#135409
b111 ^
b111 _
b111 [
b100 d#
0J"
b11 Y#
b10 r#
0,
0+
b11 w"
b10 C#
b10 D#
1E#
1i#
1"
#145825
0E#
0i#
0"
#156241
b1000 [
b1000 _
b1000 ^
b0 Y#
b10 d#
b10 D#
b10 C#
b11 w"
1E#
1i#
1"
#166656
1(
0)
#166657
0E#
0i#
0"
#177073
b1001 ^
b1001 _
b1001 [
b1001 ^#
1T#
b1 Y#
b11 w"
b10 C#
b10 D#
1E#
1i#
1"
#187489
0E#
0i#
0"
#197905
b1 U#
b1010 [
b1010 _
b1010 ^
b110 c#
0T#
1J"
b10 Y#
b101 ^#
b10 D#
b10 C#
b11 w"
1E#
1i#
1"
#208321
0E#
0i#
0"
#218737
b1011 ^
b1011 _
b1011 [
b100 d#
0J"
b11 Y#
b11 r#
1,
1+
b11 w"
b10 C#
b10 D#
1E#
1i#
1"
#229153
0E#
0i#
0"
#239569
b1100 [
b1100 _
b1100 ^
b0 Y#
b1 d#
b10 D#
b10 C#
b11 w"
1E#
1i#
1"
#249984
0(
1)
#249985
0E#
0i#
0"
#260401
b1101 ^
b1101 _
b1101 [
b110 ^#
1T#
b1 Y#
b11 w"
b10 C#
b10 D#
1E#
1i#
1"
#270817
0E#
0i#
0"
#281233
b10 U#
b1110 [
b1110 _
b1110 ^
b11001 c#
0T#
1J"
b10 Y#
b1010 ^#
b10 D#
b10 C#
b11 w"
1E#
1i#
1"
#291649
0E#
0i#
0"
#302065
b1111 ^
b1111 _
b1111 [
b100 d#
0J"
b11 Y#
b100 r#
0,
0+
b11 w"
b10 C#
b10 D#
1E#
1i#
1"
#312481
0E#
0i#
0"
#322897
b10000 [
b10000 _
b10000 ^
b0 Y#
b10 d#
b10 D#
b10 C#
b11 w"
1E#
1i#
1"
#333312
1(
0)
#333313
0E#
0i#
0"
#343729
b10001 ^
b10001 _
b10001 [
b1001 ^#
1T#
b1 Y#
b11 w"
b10 C#
b10 D#
1E#
1i#
1"
#354145
0E#
0i#
0"
#364561
b1 U#
b10010 [
b10010 _
b10010 ^
b100110 c#
0T#
1J"
b10 Y#
b101 ^#
b10 D#
b10 C#
b11 w"
1E#
1i#
1"
#374977
0E#
0i#
0"
#385393
b10011 ^
b10011 _
b10011 [
b100 d#
0J"
b11 Y#
b101 r#
1,
1+
b11 w"
b10 C#
b10 D#
1E#
1i#
1"
#395809
0E#
0i#
0"
#406225
b10100 [
b10100 _
b10100 ^
b0 Y#
b1 d#
b10 D#
b10 C#
b11 w"
1E#
1i#
1"
#416640
0(
1)
#416641
0E#
0i#
0"
#427057
b10101 ^
b10101 _
b10101 [
b110 ^#
1T#
b1 Y#
b11 w"
b10 C#
b10 D#
1E#
1i#
1"
#437473
0E#
0i#
0"
#447889
b10 U#
b10110 [
b10110 _
b10110 ^
b11001 c#
0T#
1J"
b10 Y#
b1010 ^#
b10 D#
b10 C#
b11 w"
1E#
1i#
1"
#458305
0E#
0i#
0"
#468721
b10111 ^
b10111 _
b10111 [
b100 d#
0J"
b11 Y#
b110 r#
0,
0+
b11 w"
b10 C#
b10 D#
1E#
1i#
1"
#479137
0E#
0i#
0"
#489553
b11000 [
b11000 _
b11000 ^
b0 Y#
b10 d#
b10 D#
b10 C#
b11 w"
1E#
1i#
1"
#499968
1(
0)
#499969
0E#
0i#
0"
#510385
b11001 ^
b11001 _
b11001 [
b1001 ^#
1T#
b1 Y#
b11 w"
b10 C#
b10 D#
1E#
1i#
1"
#520801
0E#
0i#
0"
#531217
b1 U#
b11010 [
b11010 _
b11010 ^
b100110 c#
0T#
1J"
b10 Y#
b101 ^#
b10 D#
b10 C#
b11 w"
1E#
1i#
1"
#541633
0E#
0i#
0"
#552049
b11011 ^
b11011 _
b11011 [
b100 d#
0J"
b11 Y#
b111 r#
1,
1+
b11 w"
b10 C#
b10 D#
1E#
1i#
1"
#562465
0E#
0i#
0"
#572881
b11100 [
b11100 _
b11100 ^
b0 Y#
b1 d#
b10 D#
b10 C#
b11 w"
1E#
1i#
1"
#583297
0E#
0i#
0"
#593713
b11101 ^
b11101 _
b11101 [
1T#
b1 Y#
b11 w"
b10 C#
b10 D#
1E#
1i#
1"
#604129
0E#
0i#
0"
#614545
b11110 [
b11110 _
b11110 ^
b11001 c#
0T#
1J"
b10 Y#
b10 D#
b10 C#
b11 w"
1E#
1i#
1"
#624961
0E#
0i#
0"
#635377
b11111 ^
b11111 _
b11111 [
0J"
b11 Y#
b0 r#
0,
0+
b11 w"
b10 C#
b10 D#
1E#
1i#
1"
#645793
0E#
0i#
0"
#656209
b100000 [
b100000 _
b100000 ^
b0 Y#
b10 D#
b10 C#
b11 w"
1E#
1i#
1"
#666625
0E#
0i#
0"
#677041
b100001 ^
b100001 _
b100001 [
1T#
b1 Y#
b11 w"
b10 C#
b10 D#
1E#
1i#
1"
#687457
0E#
0i#
0"
#697873
1F#
1G#
1]#
b100010 [
b100010 _
b100010 ^
b100101 c#
0T#
1J"
b10 Y#
b10 D#
b10 C#
b11 w"
1E#
1i#
1"
#708289
0E#
0i#
0"
#718705
b100011 ^
b100011 _
b100011 [
0J"
b11 Y#
b1 r#
1x#
1,
1+
b11 w"
b10 C#
b10 D#
1E#
1i#
1"
#729121
0E#
0i#
0"
#739537
b100100 [
b100100 _
b100100 ^
b0 Y#
0x#
b10 D#
b10 C#
b11 w"
1E#
1i#
1"
#749952
0(
1)
#749953
0E#
0i#
0"
#760369
16"
1J#
1e#
b100101 ^
b100101 _
b100101 [
b110 ^#
1T#
b1 Y#
b11 w"
b10 C#
b10 D#
1E#
1i#
1"
#770785
0E#
0i#
0"
#781201
0F#
0G#
b10000000 <"
b10000000 -#
b10000000 M#
06"
0J#
b10 U#
b100110 [
b100110 _
b100110 ^
b100000000 g#
b100000000000 h#
b1111111111111111 [#
b11111 \#
b100000000 b#
1f#
b10101 c#
0T#
1J"
b10 Y#
b1010 ^#
b10 D#
b10 C#
b11 w"
1E#
1i#
1"
#791617
0E#
0i#
0"
#802033
b100111 ^
b100111 _
b100111 [
b100 d#
0J"
b11 Y#
b10 r#
0,
0+
b11 w"
b10 C#
b10 D#
1E#
1i#
1"
#812449
0E#
0i#
0"
#822865
b101000 [
b101000 _
b101000 ^
b0 Y#
b10 d#
b10 D#
b10 C#
b11 w"
1E#
1i#
1"
#833280
1(
0)
#833281
0E#
0i#
0"
#843697
1H#
1_#
b101001 ^
b101001 _
b101001 [
b1001 ^#
1T#
b1 Y#
b11 w"
b10 C#
b10 D#
1E#
1i#
1"
#854113
0E#
0i#
0"
#864529
0H#
1F#
1G#
0_#
0]#
b1 U#
b101010 [
b101010 _
b101010 ^
b110000000 b#
b1 Z#
b10110 c#
0T#
1J"
b10 Y#
b101 ^#
b10 D#
b10 C#
b11 w"
1E#
1i#
1"
#874945
0E#
0i#
0"
#885361
b101011 ^
b101011 _
b101011 [
b100 d#
0J"
b11 Y#
b11 r#
1,
1+
b11 w"
b10 C#
b10 D#
1E#
1i#
1"
#895777
0E#
0i#
0"
#906193
b101100 [
b101100 _
b101100 ^
b0 Y#
b1 d#
b10 D#
b10 C#
b11 w"
1E#
1i#
1"
#916608
0(
1)
#916609
0E#
0i#
0"
#927025
1H#
1_#
b101101 ^
b101101 _
b101101 [
b110 ^#
1T#
b1 Y#
b11 w"
b10 C#
b10 D#
1E#
1i#
1"
#937441
0E#
0i#
0"
